{
  "code": 200,
  "data": {
    "pagination": {
      "page": 5,
      "size": 10,
      "totalPage": 15,
      "total": 149
    },
    "result": [
      {
        "id": 1,
        "title": "iPad 4 Mini",
        "price": 500.01,
        "inventory": 2
      },
      {
        "id": 2,
        "title": "H&M T-Shirt White",
        "price": 10.99,
        "inventory": 10
      },
      {
        "id": 3,
        "title": "Charli XCX - Sucker CD",
        "price": 19.99,
        "inventory": 5
      }
    ]
  }
}
